<?xml version="1.0" standalone="yes"?>

<svg version="1.1" viewBox="0.0 0.0 960.0 720.0" fill="none" stroke="none" stroke-linecap="square" stroke-miterlimit="10" xmlns="http://www.w3.org/2000/svg" xmlns:xlink="http://www.w3.org/1999/xlink"><clipPath id="p.0"><path d="m0 0l960.0 0l0 720.0l-960.0 0l0 -720.0z" clip-rule="nonzero"></path></clipPath><g clip-path="url(#p.0)"><path fill="#000000" fill-opacity="0.0" d="m0 0l960.0 0l0 720.0l-960.0 0z" fill-rule="evenodd"></path><path fill="#d9d9d9" d="m566.5875 102.92388l291.9212 0l0 515.22833l-291.9212 0z" fill-rule="evenodd"></path><path fill="#adadad" d="m858.5087 102.92388l97.30713 -97.30708l0 515.22833l-97.30713 97.30707z" fill-rule="evenodd"></path><path fill="#e0e0e0" d="m566.5875 102.92388l97.30707 -97.30708l291.92126 0l-97.30713 97.30708z" fill-rule="evenodd"></path><path fill="#000000" fill-opacity="0.0" d="m566.5875 102.92388l97.30707 -97.30708l291.92126 0l0 515.22833l-97.30713 97.30707l-291.9212 0zm0 0l291.9212 0l97.30713 -97.30708m-97.30713 97.30708l0 515.22833" fill-rule="evenodd"></path><path stroke="#000000" stroke-width="4.0" stroke-linejoin="round" stroke-linecap="butt" d="m566.5875 102.92388l97.30707 -97.30708l291.92126 0l0 515.22833l-97.30713 97.30707l-291.9212 0zm0 0l291.9212 0l97.30713 -97.30708m-97.30713 97.30708l0 515.22833" fill-rule="evenodd"></path><path fill="#000000" fill-opacity="0.0" d="m565.53235 361.76642l292.97638 -1.228363" fill-rule="evenodd"></path><path stroke="#000000" stroke-width="4.0" stroke-linejoin="round" stroke-linecap="butt" d="m565.53235 361.76642l292.97638 -1.228363" fill-rule="evenodd"></path><path fill="#000000" fill-opacity="0.0" d="m858.5087 360.53806l97.322876 -97.29135" fill-rule="evenodd"></path><path stroke="#000000" stroke-width="4.0" stroke-linejoin="round" stroke-linecap="butt" d="m858.5087 360.53806l97.322876 -97.29135" fill-rule="evenodd"></path><path fill="#cccccc" d="m7.6733007 375.70505l145.70866 0l0 67.346436l-145.70866 0z" fill-rule="evenodd"></path><path fill="#a3a3a3" d="m153.38196 375.70505l22.448822 -22.448822l0 67.346466l-22.448822 22.448792z" fill-rule="evenodd"></path><path fill="#d6d6d6" d="m7.6733007 375.70505l22.448818 -22.448822l145.70866 0l-22.448822 22.448822z" fill-rule="evenodd"></path><path fill="#000000" fill-opacity="0.0" d="m7.6733007 375.70505l22.448818 -22.448822l145.70866 0l0 67.346466l-22.448822 22.448792l-145.70866 0zm0 0l145.70866 0l22.448822 -22.448822m-22.448822 22.448822l0 67.346436" fill-rule="evenodd"></path><path stroke="#000000" stroke-width="4.0" stroke-linejoin="round" stroke-linecap="butt" d="m7.6733007 375.70505l22.448818 -22.448822l145.70866 0l0 67.346466l-22.448822 22.448792l-145.70866 0zm0 0l145.70866 0l22.448822 -22.448822m-22.448822 22.448822l0 67.346436" fill-rule="evenodd"></path><path fill="#d9d9d9" d="m33.489643 301.945l13.889767 0l0 60.944885l-13.889767 0z" fill-rule="evenodd"></path><path fill="#adadad" d="m47.37941 301.945l4.629921 -4.6299133l0 60.944885l-4.629921 4.6299133z" fill-rule="evenodd"></path><path fill="#e0e0e0" d="m33.489643 301.945l4.629921 -4.6299133l13.889767 0l-4.629921 4.6299133z" fill-rule="evenodd"></path><path fill="#000000" fill-opacity="0.0" d="m33.489643 301.945l4.629921 -4.6299133l13.889767 0l0 60.944885l-4.629921 4.6299133l-13.889767 0zm0 0l13.889767 0l4.629921 -4.6299133m-4.629921 4.6299133l0 60.944885" fill-rule="evenodd"></path><path stroke="#000000" stroke-width="3.0" stroke-linejoin="round" stroke-linecap="butt" d="m33.489643 301.945l4.629921 -4.6299133l13.889767 0l0 60.944885l-4.629921 4.6299133l-13.889767 0zm0 0l13.889767 0l4.629921 -4.6299133m-4.629921 4.6299133l0 60.944885" fill-rule="evenodd"></path><path fill="#000000" fill-opacity="0.0" d="m41.17232 233.83449l0 0c33.185024 0 60.086796 13.025238 60.086796 29.092697l-60.086796 0z" fill-rule="evenodd"></path><path fill="#000000" fill-opacity="0.0" d="m41.17232 233.83449l0 0c33.185024 0 60.086796 13.025238 60.086796 29.092697" fill-rule="evenodd"></path><path stroke="#000000" stroke-width="4.0" stroke-linejoin="round" stroke-linecap="butt" d="m41.17232 233.83449l0 0c33.185024 0 60.086796 13.025238 60.086796 29.092697" fill-rule="evenodd"></path><path fill="#000000" fill-opacity="0.0" d="m41.17232 216.539l0 0c44.574688 0 80.709625 16.896973 80.709625 37.740448l-80.709625 0z" fill-rule="evenodd"></path><path fill="#000000" fill-opacity="0.0" d="m41.17232 216.539l0 0c44.574688 0 80.709625 16.896973 80.709625 37.740448" fill-rule="evenodd"></path><path stroke="#000000" stroke-width="4.0" stroke-linejoin="round" stroke-linecap="butt" d="m41.17232 216.539l0 0c44.574688 0 80.709625 16.896973 80.709625 37.740448" fill-rule="evenodd"></path><path fill="#000000" fill-opacity="0.0" d="m42.75355 202.23286l0 0c51.499516 0 93.24811 20.099518 93.24811 44.89351l-93.24811 0z" fill-rule="evenodd"></path><path fill="#000000" fill-opacity="0.0" d="m42.75355 202.23286l0 0c51.499516 0 93.24811 20.099518 93.24811 44.89351" fill-rule="evenodd"></path><path stroke="#000000" stroke-width="4.0" stroke-linejoin="round" stroke-linecap="butt" d="m42.75355 202.23286l0 0c51.499516 0 93.24811 20.099518 93.24811 44.89351" fill-rule="evenodd"></path><path fill="#000000" fill-opacity="0.0" d="m42.753567 249.57301l0 0c23.406635 0 42.38146 7.9983673 42.38146 17.864883l-42.38146 0z" fill-rule="evenodd"></path><path fill="#000000" fill-opacity="0.0" d="m42.753567 249.57301l0 0c23.406635 0 42.38146 7.9983673 42.38146 17.864883" fill-rule="evenodd"></path><path stroke="#000000" stroke-width="4.0" stroke-linejoin="round" stroke-linecap="butt" d="m42.753567 249.57301l0 0c23.406635 0 42.38146 7.9983673 42.38146 17.864883" fill-rule="evenodd"></path><path fill="#000000" fill-opacity="0.0" d="m4.9805484 451.90524l251.59056 0l0 38.078766l-251.59056 0z" fill-rule="evenodd"></path><path fill="#000000" d="m42.1993 494.9384l4.546875 1.140625q-1.421875 5.609375 -5.140625 8.5625q-3.71875 2.9375 -9.078125 2.9375q-5.5625 0 -9.046875 -2.265625q-3.46875 -2.265625 -5.296875 -6.546875q-1.8125 -4.296875 -1.8125 -9.21875q0 -5.375 2.046875 -9.359375q2.0625 -4.0 5.84375 -6.078125q3.78125 -2.078125 8.328125 -2.078125q5.15625 0 8.671875 2.625q3.515625 2.625 4.90625 7.390625l-4.484375 1.046875q-1.1875 -3.75 -3.46875 -5.453125q-2.265625 -1.71875 -5.71875 -1.71875q-3.953125 0 -6.625 1.90625q-2.65625 1.890625 -3.734375 5.09375q-1.078125 3.203125 -1.078125 6.59375q0 4.390625 1.28125 7.65625q1.28125 3.265625 3.96875 4.890625q2.703125 1.609375 5.84375 1.609375q3.8125 0 6.453125 -2.203125q2.65625 -2.203125 3.59375 -6.53125zm9.5234375 12.046875l0 -34.359375l4.21875 0l0 34.359375l-4.21875 0zm10.7734375 -29.515625l0 -4.84375l4.218746 0l0 4.84375l-4.218746 0zm0 29.515625l0 -24.890625l4.218746 0l0 24.890625l-4.218746 0zm27.679684 -8.015625l4.359375 0.53125q-1.03125 3.828125 -3.828125 5.9375q-2.78125 2.109375 -7.109375 2.109375q-5.46875 0 -8.671875 -3.359375q-3.1875 -3.375 -3.1875 -9.4375q0 -6.28125 3.234375 -9.75q3.234375 -3.46875 8.390625 -3.46875q4.984375 0 8.140625 3.40625q3.171875 3.390625 3.171875 9.546875q0 0.375 -0.015625 1.125l-18.5625 0q0.234375 4.109375 2.3125 6.296875q2.09375 2.171875 5.203125 2.171875q2.328125 0 3.96875 -1.21875q1.640625 -1.21875 2.59375 -3.890625zm-13.84375 -6.828125l13.890625 0q-0.28125 -3.140625 -1.59375 -4.703125q-2.015625 -2.4375 -5.21875 -2.4375q-2.90625 0 -4.890625 1.953125q-1.984375 1.9375 -2.1875 5.1875zm23.507812 14.84375l0 -24.890625l3.796875 0l0 3.53125q2.734375 -4.09375 7.921875 -4.09375q2.25 0 4.125 0.8125q1.890625 0.796875 2.828125 2.109375q0.9375 1.3125 1.3125 3.125q0.234375 1.171875 0.234375 4.09375l0 15.3125l-4.21875 0l0 -15.140625q0 -2.578125 -0.5 -3.859375q-0.484375 -1.28125 -1.734375 -2.03125q-1.25 -0.765625 -2.9375 -0.765625q-2.703125 0 -4.65625 1.71875q-1.953125 1.703125 -1.953125 6.484375l0 13.59375l-4.21875 0zm35.898438 -3.78125l0.609375 3.734375q-1.78125 0.375 -3.1875 0.375q-2.296875 0 -3.5625 -0.71875q-1.265625 -0.734375 -1.78125 -1.921875q-0.515625 -1.1875 -0.515625 -4.984375l0 -14.3125l-3.09375 0l0 -3.28125l3.09375 0l0 -6.171875l4.203125 -2.53125l0 8.703125l4.234375 0l0 3.28125l-4.234375 0l0 14.546875q0 1.8125 0.21875 2.328125q0.21875 0.515625 0.71875 0.828125q0.515625 0.296875 1.453125 0.296875q0.703125 0 1.84375 -0.171875z" fill-rule="nonzero"></path><path fill="#000000" fill-opacity="0.0" d="m630.4019 632.5374l198.74011 0l0 40.094482l-198.74011 0z" fill-rule="evenodd"></path><path fill="#000000" d="m641.55817 676.57056l4.296875 -0.375q0.296875 2.578125 1.40625 4.234375q1.125 1.65625 3.46875 2.671875q2.34375 1.015625 5.265625 1.015625q2.609375 0 4.59375 -0.765625q2.0 -0.78125 2.96875 -2.125q0.96875 -1.34375 0.96875 -2.9375q0 -1.625 -0.9375 -2.828125q-0.9375 -1.203125 -3.09375 -2.03125q-1.375 -0.53125 -6.109375 -1.671875q-4.734375 -1.140625 -6.640625 -2.140625q-2.453125 -1.296875 -3.671875 -3.203125q-1.203125 -1.90625 -1.203125 -4.28125q0 -2.59375 1.46875 -4.859375q1.484375 -2.265625 4.3125 -3.4375q2.84375 -1.171875 6.3125 -1.171875q3.828125 0 6.734375 1.234375q2.921875 1.234375 4.484375 3.625q1.578125 2.390625 1.703125 5.40625l-4.359375 0.328125q-0.359375 -3.25 -2.390625 -4.90625q-2.015625 -1.671875 -5.984375 -1.671875q-4.125 0 -6.015625 1.515625q-1.875 1.5 -1.875 3.640625q0 1.84375 1.328125 3.046875q1.3125 1.1875 6.859375 2.453125q5.546875 1.25 7.609375 2.1875q3.0 1.375 4.421875 3.5q1.4375 2.125 1.4375 4.890625q0 2.734375 -1.578125 5.171875q-1.5625 2.421875 -4.515625 3.78125q-2.9375 1.34375 -6.609375 1.34375q-4.671875 0 -7.828125 -1.359375q-3.140625 -1.375 -4.9375 -4.09375q-1.796875 -2.734375 -1.890625 -6.1875zm50.0625 3.03125l4.359375 0.53125q-1.03125 3.828125 -3.828125 5.9375q-2.78125 2.109375 -7.109375 2.109375q-5.46875 0 -8.671875 -3.359375q-3.1875 -3.375 -3.1875 -9.4375q0 -6.28125 3.234375 -9.75q3.234375 -3.46875 8.390625 -3.46875q4.984375 0 8.140625 3.40625q3.171875 3.390625 3.171875 9.546875q0 0.375 -0.015625 1.125l-18.5625 0q0.234375 4.109375 2.3125 6.296875q2.09375 2.171875 5.203125 2.171875q2.328125 0 3.96875 -1.21875q1.640625 -1.21875 2.59375 -3.890625zm-13.84375 -6.828125l13.890625 0q-0.28125 -3.140625 -1.59375 -4.703125q-2.015625 -2.4375 -5.21875 -2.4375q-2.90625 0 -4.890625 1.953125q-1.984375 1.9375 -2.1875 5.1875zm23.460938 14.84375l0 -24.890625l3.796875 0l0 3.765625q1.453125 -2.640625 2.671875 -3.484375q1.234375 -0.84375 2.71875 -0.84375q2.125 0 4.328125 1.359375l-1.453125 3.90625q-1.546875 -0.90625 -3.09375 -0.90625q-1.375 0 -2.484375 0.828125q-1.09375 0.828125 -1.5625 2.3125q-0.703125 2.25 -0.703125 4.921875l0 13.03125l-4.21875 0zm22.9375 0l-9.46875 -24.890625l4.453125 0l5.34375 14.90625q0.875 2.40625 1.59375 5.015625q0.5625 -1.96875 1.578125 -4.734375l5.53125 -15.1875l4.328125 0l-9.421875 24.890625l-3.9375 0zm34.125 -8.015625l4.359375 0.53125q-1.03125 3.828125 -3.828125 5.9375q-2.78125 2.109375 -7.109375 2.109375q-5.46875 0 -8.671875 -3.359375q-3.1875 -3.375 -3.1875 -9.4375q0 -6.28125 3.234375 -9.75q3.234375 -3.46875 8.390625 -3.46875q4.984375 0 8.140625 3.40625q3.171875 3.390625 3.171875 9.546875q0 0.375 -0.015625 1.125l-18.5625 0q0.234375 4.109375 2.3125 6.296875q2.09375 2.171875 5.203125 2.171875q2.328125 0 3.96875 -1.21875q1.640625 -1.21875 2.59375 -3.890625zm-13.84375 -6.828125l13.890625 0q-0.28125 -3.140625 -1.59375 -4.703125q-2.015625 -2.4375 -5.21875 -2.4375q-2.90625 0 -4.890625 1.953125q-1.984375 1.9375 -2.1875 5.1875zm23.460938 14.84375l0 -24.890625l3.796875 0l0 3.765625q1.453125 -2.640625 2.671875 -3.484375q1.234375 -0.84375 2.71875 -0.84375q2.125 0 4.328125 1.359375l-1.453125 3.90625q-1.546875 -0.90625 -3.09375 -0.90625q-1.375 0 -2.484375 0.828125q-1.09375 0.828125 -1.5625 2.3125q-0.703125 2.25 -0.703125 4.921875l0 13.03125l-4.21875 0z" fill-rule="nonzero"></path><path fill="#d9d9d9" d="m209.49622 283.55435l285.20096 -74.26636l-5.727234 -22.005768l41.271515 24.077393l-24.295135 41.150955l-5.727234 -22.005768l-285.20096 74.26637z" fill-rule="evenodd"></path><path stroke="#000000" stroke-width="4.0" stroke-linejoin="round" stroke-linecap="butt" d="m209.49622 283.55435l285.20096 -74.26636l-5.727234 -22.005768l41.271515 24.077393l-24.295135 41.150955l-5.727234 -22.005768l-285.20096 74.26637z" fill-rule="evenodd"></path><path fill="#d9d9d9" d="m515.8743 548.9151l-272.09088 -113.22052l-8.734299 20.996338l-18.33432 -44.13379l44.224075 -18.102448l-8.734299 20.996338l272.09088 113.22055z" fill-rule="evenodd"></path><path stroke="#000000" stroke-width="4.0" stroke-linejoin="round" stroke-linecap="butt" d="m515.8743 548.9151l-272.09088 -113.22052l-8.734299 20.996338l-18.33432 -44.13379l44.224075 -18.102448l-8.734299 20.996338l272.09088 113.22055z" fill-rule="evenodd"></path><path fill="#000000" fill-opacity="0.0" d="m244.3889 204.28615l192.44093 -49.70079l15.212616 58.92914l-192.44095 49.700775z" fill-rule="evenodd"></path><path fill="#000000" d="m267.99176 247.14565l-7.158905 -27.731491l12.29953 -3.1765442q3.7065125 -0.95726013 5.82312 -0.6970215q2.1278381 0.24119568 3.765808 1.8353882q1.63797 1.5941772 2.2277222 3.878662q0.76156616 2.9501495 -0.62127686 5.469742q-1.3828735 2.5195923 -5.236206 4.095749q1.6319885 0.3208313 2.5641785 0.8062897q2.0014954 1.0645752 4.0089417 2.9022217l6.7597656 6.3069l-4.6142273 1.1916809l-5.1491394 -4.8186035q-2.2480469 -2.082138 -3.6317139 -3.1287537q-1.3875427 -1.0617676 -2.3563232 -1.3763885q-0.9536438 -0.31852722 -1.8555298 -0.31152344q-0.655426 0.024032593 -2.0775146 0.39131165l-4.251129 1.0979156l3.1791382 12.315018l-3.676239 0.94944763zm-0.32305908 -16.441559l7.8819885 -2.0356445q2.5113525 -0.6485901 3.8006592 -1.5302582q1.2854004 -0.89678955 1.7186584 -2.2190094q0.444458 -1.3412628 0.09686279 -2.6877441q-0.50772095 -1.9667664 -2.2539673 -2.8552094q-1.7501526 -0.90356445 -4.8363953 -0.10649109l-8.774597 2.2661743l2.3667908 9.168182zm39.888245 -0.6836853l3.623108 -0.46772766q-0.035339355 3.3012238 -1.848175 5.592972q-1.8016052 2.272705 -5.3114624 3.179184q-4.402405 1.1369934 -7.688507 -0.90296936q-3.2748413 -2.0590057 -4.5402527 -6.9608154q-1.3083801 -5.068222 0.571228 -8.539124q1.8947144 -3.4748077 6.055084 -4.549286q4.0242004 -1.0393066 7.291748 1.0538483q3.2636414 2.0780487 4.5485535 7.055496q0.078125 0.30256653 0.20410156 0.9155426l-14.977325 3.8681183q1.0480957 3.247345 3.1843262 4.58374q2.1322937 1.3212585 4.658783 0.6687622q1.8608093 -0.48059082 2.9231567 -1.803894q1.0774536 -1.3272247 1.3056335 -3.6938477zm-12.597748 -2.604416l11.210297 -2.8952332q-0.88308716 -2.4830627 -2.2701416 -3.4803925q-2.1264954 -1.548706 -4.728607 -0.87667847q-2.3449402 0.60562134 -3.542389 2.5932007q-1.182312 1.9836731 -0.66915894 4.6591034zm36.843506 11.463608l-2.5386353 -9.833862q-0.5015564 1.3075867 -1.747406 2.4200897q-1.2307129 1.1085968 -2.8343506 1.5227661q-3.5854797 0.9259949 -6.910614 -1.2652588q-3.310028 -2.19516 -4.591034 -7.1574707q-0.7811279 -3.0258179 -0.35824585 -5.7009277q0.4380188 -2.679016 2.114746 -4.4353333q1.6767273 -1.7563324 4.0519104 -2.3697662q3.7216187 -0.9611664 6.682251 1.6308441l-0.6951904 -2.6929626l3.0559692 -0.7892456l7.17453 27.792007l-3.4039307 0.8791199zm-15.0961 -15.095276q1.0037231 3.8881683 3.122406 5.406601q2.133789 1.5145416 4.403076 0.9284668q2.1785278 -0.5626373 3.2754211 -2.8147278q1.0968933 -2.2520905 0.124420166 -6.019211q-1.0349731 -4.009186 -3.218567 -5.5915527q-2.1723633 -1.6014099 -4.4114075 -1.0231476q-2.2087708 0.5704498 -3.2637024 2.8601074q-1.0588074 2.2745361 -0.03164673 6.2534637zm35.01059 1.7379608l-0.7615967 -2.9501495q-1.466156 4.0096436 -5.490387 5.04895q-1.7851562 0.4610443 -3.5040283 0.17877197q-1.7188721 -0.28227234 -2.7257385 -1.1195831q-1.006897 -0.83732605 -1.696106 -2.256958q-0.46957397 -0.94381714 -1.0319824 -3.1223907l-3.214264 -12.451187l3.4039307 -0.8791046l2.8783875 11.150085q0.6873779 2.6627045 1.1374207 3.5308685q0.6653137 1.2644348 1.893219 1.7703247q1.2391663 0.48684692 2.7822876 0.08831787q1.5279846 -0.3946228 2.6562195 -1.5251617q1.1433411 -1.1344452 1.3554993 -2.6255035q0.2121582 -1.4910431 -0.45178223 -4.062973l-2.7807617 -10.771866l3.4039307 -0.8791199l5.186615 20.09134l-3.040863 0.78533936zm20.457764 -12.19046l3.623108 -0.46772766q-0.035339355 3.3012238 -1.848175 5.592972q-1.8016052 2.272705 -5.311432 3.179184q-4.4024353 1.1369934 -7.688507 -0.9029846q-3.2748718 -2.0589905 -4.540283 -6.9608q-1.3083496 -5.068222 0.571228 -8.539124q1.8947144 -3.4748077 6.055084 -4.549286q4.0242004 -1.0393066 7.291748 1.0538483q3.2636414 2.0780487 4.548584 7.055496q0.07809448 0.30256653 0.20407104 0.9155426l-14.977295 3.8681183q1.0480652 3.2473297 3.1842957 4.58374q2.1323242 1.3212585 4.658783 0.6687622q1.8608398 -0.48059082 2.9231567 -1.803894q1.0774536 -1.3272247 1.3056335 -3.6938477zm-12.597748 -2.604416l11.210297 -2.8952332q-0.88305664 -2.4830627 -2.2701416 -3.4803925q-2.1264648 -1.548706 -4.728607 -0.87667847q-2.3449097 0.60562134 -3.5423584 2.5932007q-1.1823425 1.9836731 -0.66918945 4.6591034zm19.14862 1.4289703l3.2218323 -1.3969116q0.80688477 1.9379272 2.3740234 2.6950989q1.5783691 0.7381439 3.9081726 0.13642883q2.3449097 -0.6056061 3.2335205 -1.8517761q0.8885803 -1.24617 0.5566101 -2.532135q-0.3007202 -1.1649323 -1.4671326 -1.5576019q-0.81311035 -0.2741394 -3.7803345 -0.26628113q-3.9940186 0.030975342 -5.6221313 -0.2747345q-1.6168518 -0.3247528 -2.6896362 -1.3548431q-1.0576477 -1.0339966 -1.4364929 -2.5015106q-0.3475952 -1.3464813 -0.020233154 -2.6413574q0.3234253 -1.3099976 1.1871643 -2.3399506q0.6343689 -0.7932129 1.8905029 -1.5533447q1.2712402 -0.7640381 2.8446045 -1.1703796q2.360077 -0.6095276 4.320984 -0.3897705q1.9760742 0.21585083 3.123993 1.1619873q1.1479187 0.9461365 1.9694519 2.8157196l-3.2111206 1.3134613q-0.6292114 -1.4996796 -1.9410706 -2.080719q-1.3006592 -0.60006714 -3.297638 -0.08432007q-2.3449402 0.6056061 -3.1403198 1.6501923q-0.7993164 1.0294495 -0.5298462 2.0733643q0.16793823 0.6505432 0.71310425 1.0745544q0.56811523 0.45037842 1.5505371 0.5678253q0.5500183 0.067733765 3.2219849 0.10385132q3.8656921 0.034439087 5.4479065 0.28746033q1.5934448 0.23397827 2.6998901 1.206955q1.1176758 0.953949 1.566803 2.6937866q0.43743896 1.6944427 -0.17050171 3.4652252q-0.5967102 1.7517395 -2.257843 3.0683289q-1.6499023 1.2975464 -4.025116 1.9109802q-3.9031677 1.0080566 -6.37854 -0.07937622q-2.479309 -1.1025543 -3.8631287 -4.1502075zm28.915894 -4.321121l1.2725525 2.8666077q-1.3551941 0.68888855 -2.4898376 0.9819336q-1.8608398 0.48057556 -3.0419006 0.15623474q-1.1659241 -0.32824707 -1.8355713 -1.1719666q-0.6545105 -0.847641 -1.4473572 -3.9188385l-2.9838562 -11.558563l-2.4962158 0.64468384l-0.6834717 -2.6475677l2.4962158 -0.6446991l-1.2810364 -4.962311l2.8615723 -2.917633l1.8082886 7.0047455l3.4190369 -0.8830261l0.6834717 2.6475677l-3.4190369 0.8830261l3.034607 11.755249q0.37493896 1.4523926 0.6658325 1.8291168q0.2869873 0.36158752 0.74282837 0.5020752q0.47097778 0.13656616 1.2273865 -0.058792114q0.57489014 -0.14846802 1.4664917 -0.507843z" fill-rule="nonzero"></path><path fill="#000000" fill-opacity="0.0" d="m307.67526 367.6134l231.05515 95.49606l-23.24414 56.251984l-231.05508 -95.49606z" fill-rule="evenodd"></path><path fill="#000000" d="m300.79355 416.05807l10.937683 -26.469849l11.739929 4.852173q3.5378723 1.4622192 5.0734253 2.9421997q1.5559692 1.4715271 1.9075317 3.7302246q0.35159302 2.258667 -0.5494385 4.439209q-1.1636047 2.8159485 -3.7826538 3.998993q-2.6190796 1.183075 -6.646118 0.12731934q1.1117859 1.2372131 1.5652771 2.1854858q0.96032715 2.053772 1.4609375 4.7290955l1.6144409 9.103821l-4.404297 -1.8203125l-1.2210693 -6.946228q-0.54608154 -3.0153503 -1.023346 -4.683502q-0.47125244 -1.6825867 -1.0566101 -2.5162659q-0.57095337 -0.82769775 -1.296051 -1.3641052q-0.5383606 -0.3746338 -1.8957214 -0.93566895l-4.0577087 -1.677063l-4.857239 11.75473l-3.5089722 -1.4502563zm9.619293 -13.337036l7.5233765 3.1094666q2.3970642 0.99072266 3.9573364 1.06073q1.5662231 0.055603027 2.7069092 -0.7409668q1.1610718 -0.8050537 1.6921387 -2.0903015q0.7757263 -1.8772888 -0.08639526 -3.6368713q-0.85614014 -1.7740479 -3.8019714 -2.9915466l-8.375336 -3.4615784l-3.6160583 8.751068zm32.295135 23.424286l3.1770935 1.8034058q-2.0115051 2.6176453 -4.837372 3.3601685q-2.805481 0.7340698 -6.155609 -0.6505432q-4.202118 -1.7367554 -5.603302 -5.342224q-1.3807678 -3.613922 0.5525818 -8.292694q1.9989929 -4.8376465 5.586609 -6.4826355q3.6020813 -1.6390381 7.5731506 0.0022277832q3.8411255 1.5875244 5.1954956 5.224365q1.3603821 3.622406 -0.6028137 8.373413q-0.11932373 0.28881836 -0.38690186 0.8544922l-14.295837 -5.908539q-1.1131287 3.2256775 -0.20840454 5.5776978q0.91067505 2.337616 3.3222046 3.3342896q1.7761536 0.73410034 3.4203186 0.31469727q1.6585999 -0.41345215 3.2627869 -2.1681213zm-8.50528 -9.652496l10.700226 4.422455q0.78585815 -2.515564 0.27630615 -4.1463623q-0.7694092 -2.5158997 -3.2531128 -3.54245q-2.2382507 -0.9250488 -4.389496 -0.055847168q-2.1368103 0.8751526 -3.3339233 3.3222046zm14.447845 12.649597l3.4145813 0.81951904q-0.5192566 2.0339966 0.27853394 3.5810242q0.8182068 1.5385742 3.0419922 2.457672q2.2382507 0.92507935 3.697174 0.46292114q1.4589539 -0.4621277 1.966156 -1.6896057q0.45947266 -1.1119385 -0.23699951 -2.1268005q-0.4852295 -0.70773315 -2.861786 -2.4846191q-3.2112122 -2.3754272 -4.3289795 -3.5982056q-1.0973206 -1.2312622 -1.3359985 -2.6993713q-0.22424316 -1.4621277 0.35455322 -2.8628845q0.5310974 -1.2852173 1.5706787 -2.1235962q1.0455322 -0.8527832 2.3547058 -1.1570435q0.98361206 -0.25283813 2.444336 -0.10559082q1.4751892 0.15319824 2.9769897 0.77389526q2.252655 0.9310303 3.6881104 2.2851257q1.4498596 1.3600464 1.7990417 2.8061829q0.34918213 1.446167 -0.11730957 3.4343567l-3.3558655 -0.87979126q0.39797974 -1.5769043 -0.3015747 -2.8297424q-0.6791687 -1.261322 -2.5852966 -2.0491028q-2.2382202 -0.92507935 -3.501587 -0.5680847q-1.2573547 0.34259033 -1.6690979 1.3389893q-0.2565918 0.6209717 -0.07556152 1.2875366q0.18356323 0.701416 0.8982849 1.3856812q0.3989563 0.38467407 2.513092 2.0192566q3.0693054 2.3506165 4.1820374 3.5036926q1.1331482 1.1446228 1.4330444 2.5873108q0.3203125 1.4342041 -0.36590576 3.0948792q-0.66830444 1.6173706 -2.2180786 2.6675415q-1.5293579 1.041687 -3.6481323 1.0958862q-2.0983887 0.045684814 -4.365509 -0.8913269q-3.725586 -1.5397949 -5.0509644 -3.8966064q-1.3194275 -2.3712769 -0.5946655 -5.639099zm14.382904 21.2453l10.961578 -26.527588l2.960266 1.2234802l-1.0323181 2.49823q1.6423645 -1.0287781 3.2607727 -1.222168q1.6328125 -0.18737793 3.5100403 0.58847046q2.4548645 1.0146179 3.8069763 3.0612488q1.3580933 2.0322266 1.3564148 4.7366333q0.0043029785 2.689972 -1.1294556 5.433716q-1.2172852 2.9458923 -3.2440796 4.8640747q-2.026764 1.9181519 -4.5675354 2.3389282q-2.5263367 0.4267578 -4.7356873 -0.48635864q-1.6317749 -0.67440796 -2.65094 -1.8902588q-0.9987488 -1.2243347 -1.386261 -2.6187134l-3.8606873 9.34317l-3.2490845 -1.342865zm9.897491 -15.6059265q-1.5275574 3.6968384 -0.7741699 6.0877686q0.7738037 2.3824768 2.9109497 3.265747q2.1660461 0.89523315 4.454529 -0.3060913q2.3029175 -1.1953735 3.8901672 -5.036621q1.5156555 -3.6679382 0.76571655 -6.1081543q-0.74990845 -2.440216 -2.84375 -3.305603q-2.0794067 -0.85943604 -4.4818726 0.41314697q-2.3880005 1.2785645 -3.9215698 4.989807zm16.448273 6.662903q2.2018433 -5.328644 6.218292 -6.6611633q3.352417 -1.1166687 6.919159 0.3574829q3.9421692 1.6293335 5.380707 5.2671204q1.4444885 3.6233826 -0.44110107 8.1866455q-1.5335693 3.7112427 -3.5226135 5.374481q-1.9830933 1.6488037 -4.5951233 1.9555969q-2.6060486 0.29238892 -5.1042175 -0.7401123q-4.028839 -1.6651306 -5.444458 -5.2765503q-1.4155884 -3.6114197 0.58935547 -8.463501zm3.3356934 1.3786316q-1.5216064 3.6824036 -0.6765747 6.178833q0.8594971 2.502411 3.2998962 3.5110474q2.4115295 0.9967041 4.772217 -0.17480469q2.3811035 -1.1799622 3.938507 -4.949005q1.473877 -3.566864 0.60842896 -6.0548096q-0.8594971 -2.502411 -3.2565613 -3.4931335q-2.4404297 -1.0086365 -4.8095703 0.14245605q-2.3547363 1.1570435 -3.8763428 4.8394165zm14.474426 17.208588l7.9243164 -19.177277l2.9169312 1.2055664l-1.1277771 2.729309q3.4295044 -2.2851868 7.415039 -0.63797q1.7328186 0.7161865 2.9143066 1.9483948q1.2018738 1.2237549 1.5061951 2.53302q0.30429077 1.3092346 0.020263672 2.814911q-0.18222046 0.9729309 -1.1190796 3.2401123l-4.8691406 11.78363l-3.249054 -1.342865l4.821411 -11.668091q0.8175049 -1.978363 0.833374 -3.1214905q0.030303955 -1.137146 -0.6925354 -2.1290894q-0.72283936 -0.99191284 -2.022461 -1.5290527q-2.064972 -0.8534546 -4.1301575 -0.15158081q-2.0447998 0.6933899 -3.5664062 4.3757935l-4.3261414 10.469513l-3.2490845 -1.3428345zm21.62268 2.2415771l3.4145813 0.81951904q-0.5192566 2.0339966 0.27853394 3.5810242q0.8182068 1.5385742 3.0419922 2.457672q2.2382507 0.92507935 3.697174 0.46292114q1.4589539 -0.4621277 1.966156 -1.6896057q0.45947266 -1.1119385 -0.23699951 -2.12677q-0.4852295 -0.7077637 -2.861786 -2.4846497q-3.2112122 -2.3754272 -4.3289795 -3.5982056q-1.0973206 -1.2312622 -1.3359985 -2.6993713q-0.22424316 -1.4621277 0.35455322 -2.8628845q0.5310974 -1.2852173 1.5706787 -2.1235962q1.0455322 -0.8527832 2.3547058 -1.1570435q0.98361206 -0.25283813 2.4443665 -0.10559082q1.4751587 0.15319824 2.9769592 0.77389526q2.252655 0.9310303 3.6881104 2.2851257q1.4498596 1.3600464 1.7990417 2.8062134q0.34918213 1.4461365 -0.11730957 3.4343262l-3.3558655 -0.87979126q0.39797974 -1.5769043 -0.3015747 -2.8297424q-0.6791687 -1.2612915 -2.5852966 -2.0491028q-2.2382202 -0.92507935 -3.501587 -0.5680542q-1.2573547 0.3425598 -1.6690979 1.3389587q-0.2565918 0.6209717 -0.075531006 1.2875366q0.18353271 0.701416 0.8982544 1.3856812q0.3989563 0.38467407 2.513092 2.0192566q3.0693054 2.3506165 4.1820374 3.5036926q1.1331482 1.1446228 1.4330444 2.5873108q0.3203125 1.4342041 -0.36590576 3.0948792q-0.66830444 1.6173706 -2.2180786 2.6675415q-1.5293579 1.041687 -3.6481323 1.0958862q-2.0983887 0.045715332 -4.365509 -0.8912964q-3.725586 -1.5398254 -5.0509644 -3.896637q-1.3194275 -2.3712769 -0.5946655 -5.639099zm33.10028 13.139465l3.1770935 1.8034058q-2.0115051 2.6176453 -4.837372 3.360199q-2.805481 0.7340698 -6.155609 -0.65057373q-4.202118 -1.7367554 -5.603302 -5.3421936q-1.3807678 -3.613922 0.5525818 -8.292725q1.9989929 -4.8376465 5.586609 -6.4826355q3.6020813 -1.6390381 7.5731506 0.0022277832q3.8411255 1.5875549 5.1954956 5.2243958q1.3603821 3.6223755 -0.6028137 8.373383q-0.11932373 0.28881836 -0.38690186 0.8544922l-14.295868 -5.908539q-1.1130981 3.2256775 -0.20837402 5.5777283q0.91067505 2.3375854 3.3222046 3.334259q1.7761536 0.73410034 3.4203186 0.31469727q1.6585999 -0.41345215 3.2627869 -2.1681213zm-8.50528 -9.652496l10.700226 4.422455q0.78585815 -2.515564 0.27627563 -4.1463623q-0.76937866 -2.5158997 -3.2530823 -3.5424194q-2.2382507 -0.92507935 -4.389496 -0.055877686q-2.1368103 0.8751831 -3.3339233 3.3222046z" fill-rule="nonzero"></path><path fill="#000000" fill-opacity="0.0" d="m565.53235 497.76642l292.97638 -1.228363" fill-rule="evenodd"></path><path stroke="#000000" stroke-width="4.0" stroke-linejoin="round" stroke-linecap="butt" d="m565.53235 497.76642l292.97638 -1.228363" fill-rule="evenodd"></path><path fill="#000000" fill-opacity="0.0" d="m858.5087 496.53806l97.322876 -97.322845" fill-rule="evenodd"></path><path stroke="#000000" stroke-width="4.0" stroke-linejoin="round" stroke-linecap="butt" d="m858.5087 496.53806l97.322876 -97.322845" fill-rule="evenodd"></path><path fill="#000000" fill-opacity="0.0" d="m565.53235 225.7664l292.97638 -1.2283478" fill-rule="evenodd"></path><path stroke="#000000" stroke-width="4.0" stroke-linejoin="round" stroke-linecap="butt" d="m565.53235 225.7664l292.97638 -1.2283478" fill-rule="evenodd"></path><path fill="#000000" fill-opacity="0.0" d="m858.5087 224.53806l97.322876 -97.32283" fill-rule="evenodd"></path><path stroke="#000000" stroke-width="4.0" stroke-linejoin="round" stroke-linecap="butt" d="m858.5087 224.53806l97.322876 -97.32283" fill-rule="evenodd"></path></g></svg>

